<svg id="Capa_1" data-name="Capa 1" xmlns="http://www.w3.org/2000/svg" width="39.495mm" height="17.322mm" viewBox="0 0 111.953 49.102">
  <path d="M55.976,44.39A19.869,19.869,0,0,1,36.13,24.54h0A18.2,18.2,0,0,0,3.563,13.371c.063.134.126.268.187.4v.012a25.859,25.859,0,0,1,1.77,5.424A13.5,13.5,0,0,1,31.434,24.54q0,.7.039,1.4l.006.1c.011.182.024.363.039.544.006.079.014.157.021.235.012.131.025.263.039.394.012.109.024.219.038.328.011.092.023.184.035.276.019.138.038.277.059.414.007.048.015.1.022.142a24.235,24.235,0,0,0,.631,2.87v.012q.077.27.161.539l.024.076c.052.168.106.334.162.5.013.037.026.074.038.111.055.159.11.317.168.474.014.039.029.077.043.115.095.256.2.508.3.76.037.089.072.179.11.268s.082.186.122.279c.048.109.1.218.146.327s.089.19.133.286.095.2.143.3.1.2.149.3.115.223.173.333q.33.628.694,1.235c.032.053.064.107.1.16.087.142.175.284.265.424l.045.069q.464.718.974,1.4l.006.008a24.521,24.521,0,0,0,37.588,2.072,26.249,26.249,0,0,1-2.74-3.985A19.94,19.94,0,0,1,55.976,44.39Z" transform="translate(0 0.007)"/>
  <path d="M110.011,38.64q-.153-.239-.3-.48c-.028-.045-.055-.09-.082-.136q-.213-.354-.416-.716A19.842,19.842,0,0,1,74.178,24.54,18.2,18.2,0,0,0,41.61,13.371l.008.017c.049.1.1.207.146.312s.1.228.152.342.089.2.132.3.079.191.118.286q.165.4.316.8l.048.128c.061.167.12.333.178.5l.042.123c.059.176.117.352.172.53l.027.085c.059.19.116.38.17.572l.005.017q.256.9.448,1.816A13.5,13.5,0,0,1,69.48,24.54c0,.223,0,.446.01.669,0,.1.007.2.011.3,0,.116.009.232.015.348.007.136.016.272.026.407,0,.075.01.15.016.224.013.162.027.323.043.484l.012.123q.03.281.064.56v.008a24.387,24.387,0,0,0,2.21,7.477l.029.061q.117.242.238.478l.046.088a24.53,24.53,0,0,0,39.753,5.53,26.255,26.255,0,0,1-1.928-2.631Z" transform="translate(0 0.007)"/>
  <path d="M39.989,10.446q.153.239.3.48c.027.045.054.09.082.135.142.237.281.475.416.716A19.842,19.842,0,0,1,75.822,24.54,18.2,18.2,0,0,0,108.39,35.717l-.008-.018c-.049-.1-.1-.207-.145-.311s-.1-.228-.153-.343-.09-.2-.133-.3-.077-.188-.115-.282c-.112-.271-.218-.543-.32-.816-.015-.04-.031-.08-.046-.121-.062-.168-.121-.337-.179-.507-.013-.039-.027-.078-.04-.118-.061-.177-.118-.355-.174-.534l-.025-.08q-.09-.287-.172-.576V31.7c-.171-.6-.322-1.207-.449-1.819A13.5,13.5,0,0,1,80.52,24.54c0-.224,0-.447-.01-.669,0-.1-.007-.2-.011-.3,0-.116-.009-.232-.015-.348-.007-.136-.016-.272-.026-.407,0-.075-.01-.15-.016-.225-.013-.161-.027-.323-.043-.483l-.012-.123c-.02-.188-.041-.374-.065-.56v-.008a24.329,24.329,0,0,0-2.213-7.477l-.022-.047c-.079-.163-.16-.326-.243-.487l-.041-.079A24.532,24.532,0,0,0,38.047,7.792a26.519,26.519,0,0,1,1.927,2.631Z" transform="translate(0 0.007)"/>
  <path d="M17.929,4.7A19.869,19.869,0,0,1,37.775,24.54h0A18.2,18.2,0,0,0,70.342,35.717c-.063-.134-.126-.268-.187-.4l-.006-.014a25.858,25.858,0,0,1-1.769-5.422A13.5,13.5,0,0,1,42.471,24.54q0-.7-.039-1.4l-.006-.1c-.011-.182-.024-.363-.039-.545-.006-.078-.013-.156-.021-.233-.012-.133-.025-.267-.039-.4-.012-.109-.024-.218-.038-.326s-.023-.186-.036-.278c-.018-.138-.037-.276-.057-.413-.008-.048-.016-.1-.023-.145a24.135,24.135,0,0,0-.63-2.864V17.82c-.051-.18-.1-.359-.16-.537l-.025-.079q-.078-.249-.162-.5l-.039-.115c-.054-.157-.109-.315-.166-.471L40.945,16q-.141-.378-.294-.748c-.037-.092-.074-.184-.112-.275s-.082-.185-.122-.278c-.048-.109-.1-.218-.145-.326l-.135-.289c-.047-.1-.093-.2-.141-.293s-.1-.2-.15-.3-.115-.224-.174-.335q-.328-.627-.692-1.232l-.1-.162c-.087-.142-.176-.283-.265-.424l-.045-.068c-.309-.479-.634-.948-.975-1.4V9.86A24.524,24.524,0,0,0,0,7.792a26.249,26.249,0,0,1,2.74,3.985A19.939,19.939,0,0,1,17.929,4.7Z" transform="translate(0 0.007)"/>
</svg>
