<?xml version="1.0" encoding="UTF-8"?>
<!DOCTYPE svg PUBLIC "-//W3C//DTD SVG 1.1//EN" "http://www.w3.org/Graphics/SVG/1.1/DTD/svg11.dtd">
<!-- Creator: CorelDRAW 2019 (64-Bit) -->
<svg xmlns="http://www.w3.org/2000/svg" xml:space="preserve" width="400px" height="400px" version="1.1" style="shape-rendering:geometricPrecision; text-rendering:geometricPrecision; image-rendering:optimizeQuality; fill-rule:evenodd; clip-rule:evenodd"
viewBox="0 0 400 400"
 xmlns:xlink="http://www.w3.org/1999/xlink"
 xmlns:xodm="http://www.corel.com/coreldraw/odm/2003">
 <defs>
  <style type="text/css">
   <![CDATA[
    .fil5 {fill:#2B2A29;fill-rule:nonzero}
    .fil4 {fill:#F5B0B0;fill-rule:nonzero}
    .fil3 {fill:#E54070;fill-rule:nonzero}
    .fil0 {fill:#E45036;fill-rule:nonzero}
    .fil1 {fill:#8BB1DE;fill-rule:nonzero}
    .fil2 {fill:#333870;fill-rule:nonzero}
    .fil6 {fill:black;fill-rule:nonzero}
   ]]>
  </style>
 </defs>
 <g id="Capa_x0020_1">
  <metadata id="CorelCorpID_0Corel-Layer"/>
  <g id="_1988056255760">
   <path class="fil0" d="M342.15 330.81c-0.35,-1.05 -0.8,-1.97 -1.34,-2.76 -0.47,-9.84 -2.5,-19.64 -6.23,-28.7 -0.17,-0.7 -0.39,-1.35 -0.67,-1.94 -4.05,-30.31 -11.3,-60.28 -20.24,-89.45 -4.98,-16.27 -10.82,-32.2 -17.92,-47.67 -3.26,-7.09 -6.11,-14.41 -9.6,-21.38 -3.79,-7.56 -7.34,-15.53 -7.83,-24.04 -0.26,-4.53 -6.94,-4.07 -7.64,0.06 -1.34,7.98 -2.28,15.36 -2.35,23.45 -0.09,8.61 1.71,16.47 4.01,24.72 3.13,11.23 6.67,22.33 10.16,33.45 -0.85,0.59 -1.7,1.19 -2.54,1.79 -2.3,0.92 -4.5,2.06 -6.58,3.38 -2.72,-3.3 -5.57,-6.52 -8.6,-9.65 -9.99,-10.34 -20.5,-19.75 -28.72,-31.66 -7.54,-10.92 -14.36,-23.75 -18.14,-36.51 -0.66,-2.22 -2.39,-3.01 -4.16,-2.83 -1.47,-1.11 -4.23,-0.03 -4.3,1.93 -0.02,0.39 -0.01,0.77 -0.02,1.15 -0.29,0.66 -0.45,1.38 -0.39,2.18 0.23,2.92 0.52,5.78 0.87,8.61 0.28,2.45 0.65,4.88 1.13,7.29 1.47,8.05 3.73,15.83 7.29,23.69 1,2.2 2.1,4.34 3.24,6.46 6.24,12.89 14.04,25.22 21.43,37.11 -2.74,0.86 -5.41,1.96 -7.98,3.49 -1.88,1.12 -3.66,2.4 -5.36,3.79 -9.49,-10.19 -18.14,-21.39 -26.69,-32.33 -8.17,-10.46 -18.84,-21.53 -21.28,-35 -1.14,-6.27 -11.81,-6.97 -11.83,0.11 -0.03,14.41 4.13,27.46 11.35,39.86 7.87,13.51 15.97,26.96 25.72,39.21 2.18,2.75 4.48,5.36 6.83,7.91 -0.55,0.97 -1.09,1.96 -1.62,2.94 -2.93,-2.27 -5.85,-4.56 -8.71,-6.92 -21.65,-17.8 -42.08,-37.78 -60.47,-58.96 -4.16,-4.78 -11.84,-0.55 -9.62,5.56 10.25,28.14 28.25,49.97 50.03,70.22 2.15,2.01 4.35,3.96 6.57,5.89 4.78,10.54 9.94,20.91 15.43,31.1 1.29,4.56 3.66,9.13 6.33,13.48 -4.41,-4.85 -8.91,-9.62 -13.67,-14.12 -7.16,-6.77 -15.7,-14.28 -25.67,-16.14 -4.05,-0.75 -8.63,-0.9 -12.55,0.55 -3.88,1.44 -5.39,4.27 -8.12,7.01 -4.01,4 1.43,10.32 6.16,8.85 0.19,0.06 0.41,0.13 0.7,0.21 0.9,0.33 1.8,0.66 2.69,1.01 1.6,0.82 2.88,2.09 4.26,3.23 3.29,2.69 6.43,5.49 9.42,8.51 7.57,7.66 14.5,15.93 21.34,24.24 14.69,17.82 30.22,35.39 50.45,47.03 19.15,11.01 41.25,14.8 62.35,7.23 17.78,-6.38 40.07,-25.46 33.08,-46.64z"/>
   <path class="fil1" d="M97.44 129.38c-4.39,5.06 -9.21,9.6 -12.05,15.91 -3.38,7.49 -6.12,15.26 -8.19,23.21 -3.91,15.06 -5.78,30.72 -5.81,46.3 -5.63,15.7 -9.91,31.55 -12.27,48.36 -0.63,4.45 -1.08,8.92 -1.38,13.38 -1.66,12.77 -1.57,25.56 0.05,38.48 0.75,6.04 1.56,12.61 3.48,18.6 3.3,19.51 9.14,41.26 27.56,51.14 6.76,3.63 14.18,5.24 21.67,5.24 11.43,0 23,-3.74 32.61,-9.75 1.88,0.31 3.73,0.46 5.55,0.46 11.43,0 21.62,-6.01 28.7,-15.48 7.93,-10.62 9.46,-24.1 13.58,-36.35 0.95,-2.83 1.97,-5.65 3.05,-8.45 -6.1,-7.37 -12.33,-14.67 -19.06,-21.48 -0.04,-0.04 -0.09,-0.08 -0.13,-0.12 -0.7,0.35 -1.47,0.55 -2.24,0.55 -1.49,0 -2.98,-0.75 -3.98,-2.54 -0.62,-1.11 -1.23,-2.22 -1.84,-3.33 -0.23,0.03 -0.46,0.05 -0.68,0.05 -0.93,0 -1.85,-0.31 -2.55,-1.04 -2.03,-2.1 -3.97,-4.26 -5.83,-6.48 -0.42,0.11 -0.85,0.17 -1.27,0.17 -4.08,0 -7.92,-4.95 -5.19,-8.53 -8.92,-12.47 -15.89,-26.32 -22.18,-40.36 -6.77,-15.12 -12.48,-30.72 -17.25,-46.6 -0.39,1.91 -0.74,3.83 -1.07,5.75 -2.47,3.72 -4.78,7.62 -6.85,11.84 -1.83,3.72 -3.38,7.55 -4.72,11.46 -2.28,-6.03 -4.53,-12.07 -6.71,-18.15 -0.16,-0.44 -0.36,-0.86 -0.57,-1.26 0.59,-9.96 1.95,-19.87 4.1,-29.59 1.54,-6.97 3.65,-13.76 5.41,-20.66 -1.49,-6.87 -2.82,-13.78 -3.94,-20.73zm107.33 36.37c-0.56,0.24 -1.11,0.5 -1.67,0.72 -1.52,0.6 -3.29,1.25 -5.24,1.87 -0.36,0.4 -0.72,0.81 -1.07,1.23 2.85,5.81 5.71,11.6 8.61,17.38 2.71,-4.31 5.58,-8.49 8.63,-12.49 -2.93,-3.04 -6.09,-5.88 -9.26,-8.71zm-21.36 27.41c-0.84,2.01 -1.65,4.04 -2.43,6.08 3.11,7.18 6.03,14.4 8.82,21.67 1.02,0.9 2.04,1.8 3.07,2.7 1.02,-3.39 2.04,-6.78 3.09,-10.17 -4.4,-6.61 -8.52,-13.42 -12.55,-20.28zm-41.24 5.5c-0.06,0.15 -0.12,0.3 -0.18,0.45 7.46,23.62 15.83,47.04 25.37,69.92 1.7,0.05 3.4,0.25 5.01,0.55 2.37,0.44 4.66,1.21 6.87,2.2 1.71,-6.53 3.48,-13.04 5.3,-19.54 -1.03,-1.56 -2.06,-3.12 -3.09,-4.67 -15.66,-14.79 -29.26,-30.48 -39.28,-48.91zm52.71 69.27c-3.01,2.48 -5.89,5.11 -8.64,7.86 4.28,2.96 8.21,6.54 11.8,9.93 2.79,2.64 5.5,5.37 8.15,8.16 0.1,-0.19 0.2,-0.39 0.31,-0.58 0.28,-0.53 0.57,-1.05 0.86,-1.57 -0.8,-1.78 -1.47,-3.58 -1.98,-5.37 -2.34,-4.34 -4.61,-8.71 -6.83,-13.12 -1.24,-1.76 -2.46,-3.53 -3.67,-5.31z"/>
   <path class="fil2" d="M184.82 189.92c-0.48,1.07 -0.95,2.16 -1.41,3.24 4.03,6.86 8.15,13.67 12.55,20.28 0.2,-0.64 0.39,-1.28 0.59,-1.92 -2.94,-5.06 -5.74,-10.22 -8.49,-15.42 -1.08,-2.05 -2.16,-4.11 -3.24,-6.18zm-41.69 6.31c-0.32,0.81 -0.65,1.62 -0.96,2.43 10.02,18.43 23.62,34.12 39.28,48.91 -4.65,-6.96 -9.48,-13.79 -14.86,-20.22 -0.45,1.09 -0.9,2.18 -1.34,3.28 0.08,-1.51 0.17,-3.02 0.29,-4.53 -7.22,-8.53 -14.41,-16.34 -20.17,-26.07 -0.75,-1.27 -1.49,-2.53 -2.24,-3.8zm46.67 24.68c0.73,1.9 1.45,3.81 2.17,5.71 0.3,-1 0.6,-2.01 0.9,-3.01 -1.03,-0.9 -2.05,-1.8 -3.07,-2.7zm34.54 32.58c-5.92,0 -11.87,2.45 -17.25,5.65 2.57,6.18 4.78,12.51 6.62,18.94 0.9,3.14 -2.09,6.23 -4.98,6.23 -1.11,0 -2.21,-0.46 -3.07,-1.54 -2.47,-3.1 -4.82,-6.29 -7.11,-9.53 2.22,4.41 4.49,8.78 6.83,13.12 0.51,1.79 1.18,3.59 1.98,5.37 2.83,-5.02 6.14,-9.63 10.52,-13.48 2.43,-2.13 5.16,-3.73 7.9,-5.43 2.97,-1.84 6.39,-5.67 9.51,-6.85 4.04,-1.53 4.02,-7.81 -0.89,-7.95l-0.02 0c-0.62,-1.6 -1.96,-2.97 -4.17,-3.66 -1.94,-0.6 -3.91,-0.87 -5.87,-0.87zm-56.98 15.54c2.56,6.13 5.2,12.23 7.93,18.27 1.28,-5.18 2.6,-10.35 3.95,-15.52 -2.21,-0.99 -4.5,-1.76 -6.87,-2.2 -1.61,-0.3 -3.31,-0.5 -5.01,-0.55zm18.88 6.76c-3.81,3.82 -7.36,7.88 -10.66,12.16 0.57,1.26 1.15,2.52 1.73,3.78 1.41,3.07 -0.2,5.93 -2.51,7.1 0.04,0.04 0.09,0.08 0.13,0.12 6.73,6.81 12.96,14.11 19.06,21.48 3.5,-9.09 7.65,-18.03 12.2,-26.55 -2.65,-2.79 -5.36,-5.52 -8.15,-8.16 -3.59,-3.39 -7.52,-6.97 -11.8,-9.93zm-35.02 1.89c-2.73,3.58 1.11,8.53 5.19,8.53 0.42,0 0.85,-0.06 1.27,-0.17 -2.27,-2.71 -4.41,-5.49 -6.46,-8.36z"/>
   <path class="fil3" d="M182.17 10c-3.09,0 -6.26,0.33 -9.5,1.02 -20.44,4.41 -35.65,21.09 -48.71,36.3 -6.7,7.81 -13.03,16.34 -17.38,25.54 -10.8,6.32 -12.64,27.02 -11.58,37.81 0.61,6.28 1.44,12.51 2.44,18.71 1.18,-1.36 2.34,-2.76 3.41,-4.24 0.57,-0.79 1.47,-1.14 2.35,-1.14 1.64,0 3.22,1.24 2.49,3.2 -1.46,3.88 -2.42,6.72 -2.51,10.76 -0.07,3.73 -0.63,7.48 -1.54,11.13 -0.08,0.34 -0.17,0.68 -0.26,1.02 1.86,8.56 3.95,17.07 6.18,25.57 1.32,5.04 2.73,10.05 4.23,15.04 0.67,-3.37 1.43,-6.71 2.28,-10.04 2.16,-8.4 4.99,-16.62 8.28,-24.65 3.18,-7.76 6.32,-18.31 14.03,-22.67 0.78,-0.44 1.66,-0.64 2.54,-0.64 2.4,0 4.82,1.52 5.28,4.04 1.29,6.99 -2.03,13.58 -4.05,20.16 -1.53,5.02 -2.88,10.08 -4.05,15.19 0.78,-0.37 1.64,-0.58 2.52,-0.58 1.53,0 3.1,0.62 4.35,2.07 2.21,2.54 4.45,5.07 6.72,7.58 3.13,-6.66 6.55,-13.18 10.37,-19.47 5.32,-8.77 11.63,-19.49 20.35,-25.23 0.66,-0.43 1.34,-0.62 2,-0.62 2.06,0 3.9,1.88 4.17,3.99 1.68,0.61 2.68,2.71 1.07,4.54 -2.11,2.38 -3.85,5.03 -5.32,7.85 2.06,7.65 6.65,14.52 11.66,20.98 0.89,-1.25 1.82,-2.47 2.8,-3.65 -0.13,-0.26 -0.25,-0.52 -0.38,-0.78 0.49,-0.15 0.97,-0.3 1.45,-0.45 4.65,-5.21 10.32,-9.28 17.23,-10.55 -1.78,-5.14 -3.08,-10.29 -4.04,-15.56 -0.48,-2.41 -0.85,-4.84 -1.13,-7.29 -0.36,-2.83 -0.64,-5.69 -0.87,-8.61 -0.06,-0.8 0.1,-1.53 0.39,-2.18 0.01,-0.38 0,-0.76 0.02,-1.15 0.05,-1.42 1.51,-2.37 2.87,-2.37 0.52,0 1.02,0.13 1.43,0.44 0.16,-0.02 0.32,-0.02 0.48,-0.02 1.59,0 3.08,0.83 3.68,2.85 3.78,12.76 10.6,25.59 18.14,36.51 6.2,8.99 13.71,16.55 21.31,24.17 -1.24,-5.27 -2.54,-10.52 -3.92,-15.75 -2.71,-10.31 -8.78,-21.88 -12.56,-33.54 0.08,-3.19 0.17,-6.38 0.25,-9.57 0.95,1.53 2,3 3.14,4.4 5.85,8.88 11.8,17.72 16.98,26.98 1.85,3.3 5.08,4.72 8.36,4.72 0.07,0 0.15,0 0.22,-0.01 0.94,3.06 1.84,6.15 2.72,9.28 0.43,1.54 1.57,2.32 2.8,2.43 -1.04,-3.47 -2.05,-6.94 -3.02,-10.42 -2.3,-8.25 -4.1,-16.11 -4.01,-24.72 0.07,-7.69 0.92,-14.73 2.15,-22.26 -1.63,-3.42 -3.46,-6.75 -5.45,-9.94 -6.36,-10.26 -14.05,-19.45 -21.43,-28.89l0.01 -0.05c0.54,-2.37 -0.18,-4.23 -1.48,-5.44 -1.09,-14.36 -5.15,-27.73 -15.88,-39.01 -12.05,-12.66 -26.89,-22.79 -44.08,-22.79zm37.11 157.92c-0.06,0.09 -0.13,0.18 -0.21,0.26 -1.73,2.04 -3.41,4.13 -5.04,6.28 0.58,0.6 1.16,1.21 1.72,1.83 7.98,8.77 14.77,18.23 21.28,28.12 1.27,1.92 2.6,3.84 3.95,5.77 0.67,-0.25 1.35,-0.48 2.03,-0.69 -7.39,-11.89 -15.19,-24.22 -21.43,-37.11 -0.79,-1.47 -1.57,-2.95 -2.3,-4.46zm-44.69 7.63c-0.12,0.49 -0.24,0.97 -0.36,1.46 -1.99,8.1 -3.7,16.24 -5.2,24.43 2.28,2.26 4.58,4.5 6.9,6.71 1.48,-2.63 3.02,-5.22 4.62,-7.76 0.14,-0.38 0.29,-0.77 0.44,-1.15 -1.77,-4.08 -3.59,-8.14 -5.49,-12.19 1.22,-0.38 2.36,-1.05 3.37,-1.91 -1.63,-3.15 -3.06,-6.34 -4.28,-9.59zm-40.4 5.86c-2.26,12.17 -3.7,24.48 -4.04,36.87 -0.01,0.6 -0.01,1.2 -0.02,1.8 1.19,0.75 2.43,1.45 3.7,2.09 0.17,-0.04 0.35,-0.08 0.53,-0.12 2.13,-7.79 4.71,-15.42 7.63,-22.94 -0.19,-0.62 -0.39,-1.24 -0.59,-1.86 -2.68,-5.07 -5.09,-10.33 -7.21,-15.84zm71.21 5.54c-0.06,0.11 -0.13,0.22 -0.21,0.33 0.36,0.45 0.71,0.9 1.07,1.36 -0.29,-0.57 -0.57,-1.13 -0.86,-1.69zm6 46.96c0.73,0.97 1.47,1.93 2.23,2.88 0.05,-0.09 0.1,-0.17 0.14,-0.26 -0.8,-0.86 -1.59,-1.74 -2.37,-2.62zm-26.46 16.9c-0.14,0.48 -0.27,0.95 -0.4,1.43 3.44,5.23 6.83,10.5 10.34,15.69 0.24,-0.21 0.49,-0.41 0.74,-0.61 -1.94,-3.99 -3.83,-8.01 -5.67,-12.06 -1.69,-1.46 -3.36,-2.94 -5.01,-4.45z"/>
   <path class="fil4" d="M270.48 116.12c-1.23,7.53 -2.08,14.57 -2.16,22.26 -0.08,8.61 1.72,16.47 4.02,24.72 0.97,3.48 1.98,6.96 3.02,10.42 0.11,0.01 0.21,0.01 0.32,0.01 1.43,0 2.92,-0.87 3.5,-2.44 1.8,-4.85 3.32,-8.81 3.26,-14.12 -0.07,-4.98 -0.81,-10.26 -2.1,-15.07 -1.13,-4.27 -2.68,-8.41 -4.57,-12.39 -0.32,-0.97 -0.64,-1.93 -0.96,-2.85 -1.23,-3.58 -2.68,-7.11 -4.33,-10.54zm-58.15 4.5c-1.36,0 -2.82,0.96 -2.87,2.38 -0.02,0.39 -0.01,0.77 -0.02,1.15 -0.29,0.65 -0.45,1.38 -0.39,2.18 0.23,2.92 0.52,5.78 0.87,8.61 0.28,2.45 0.65,4.88 1.13,7.29 0.96,5.27 2.26,10.42 4.04,15.56 0.63,-0.12 1.26,-0.21 1.91,-0.28 0.15,-0.01 0.3,-0.02 0.44,-0.02 3.45,0 4.24,4.53 2.57,6.89 0.31,1.1 0.15,2.36 -0.73,3.54 0.73,1.51 1.51,2.99 2.3,4.46 6.24,12.89 14.04,25.22 21.43,37.11 -0.68,0.21 -1.36,0.44 -2.03,0.68 0.1,0.15 0.21,0.29 0.31,0.44 0.88,1.58 1.81,3.13 2.8,4.63 1.31,1.96 2.61,3.91 3.89,5.85 1.7,7.82 3.42,15.63 5.27,23.41 0.98,4.13 4.03,5.92 7.22,5.92 4.82,0 9.95,-4.09 8.69,-10.31 -3.76,-18.52 -7.43,-37.12 -11.79,-55.53 -7.6,-7.62 -15.11,-15.18 -21.31,-24.17 -7.54,-10.92 -14.36,-23.75 -18.14,-36.51 -0.6,-2.02 -2.09,-2.85 -3.68,-2.85 -0.16,0 -0.32,0.01 -0.48,0.02 -0.41,-0.31 -0.91,-0.45 -1.43,-0.45zm-30 31.62c-3.78,7.21 -5.82,15.52 -7.74,23.31 1.22,3.25 2.65,6.44 4.28,9.59 0.83,-0.7 1.57,-1.53 2.2,-2.44 1.24,2.41 2.49,4.82 3.75,7.22 1.56,-3.5 3.24,-6.93 5.11,-10.24 1.23,-2.18 2.58,-4.36 4.06,-6.45 -5.01,-6.46 -9.6,-13.34 -11.66,-20.99zm-43.71 19.29c-0.88,0 -1.74,0.2 -2.52,0.58 -0.39,1.71 -0.75,3.43 -1.1,5.15 -0.28,1.38 -0.55,2.77 -0.81,4.15 2.12,5.51 4.53,10.77 7.21,15.84 -0.24,-0.78 -0.48,-1.55 -0.72,-2.33 -0.61,-1.96 -1.2,-3.93 -1.79,-5.9 1.42,2.4 2.83,4.81 4.24,7.21 0.54,-1.33 1.09,-2.66 1.65,-3.99 1.56,-3.72 3.19,-7.41 4.91,-11.06 -2.27,-2.51 -4.51,-5.04 -6.72,-7.59 -1.25,-1.44 -2.82,-2.06 -4.35,-2.06zm66.57 15.75c-0.43,0.7 -0.86,1.4 -1.29,2.11 -0.84,2.17 -1.61,4.37 -2.34,6.56 -1.72,5.17 -3.39,10.36 -5.01,15.57 3.63,6.23 7.48,12.31 11.72,18.17 1.03,1.41 2.07,2.82 3.13,4.22 0.78,0.88 1.57,1.75 2.37,2.62 -0.05,0.09 -0.09,0.17 -0.14,0.26 1.97,2.49 4.03,4.9 6.23,7.2 4.8,5.02 10.35,7.61 15.9,11.45 0.59,0.41 1.23,0.59 1.85,0.59 2.67,0 5.11,-3.31 3.42,-5.86 -3.08,-4.66 -4.98,-10.21 -8,-15 -3.06,-4.87 -6.26,-9.64 -9.24,-14.55 -5.83,-9.61 -11.21,-19.54 -16.3,-29.55 -0.41,-0.81 -0.82,-1.62 -1.23,-2.43 -0.36,-0.45 -0.71,-0.91 -1.07,-1.36zm-36.16 14.16c-0.57,3.14 -1.12,6.29 -1.63,9.45 -0.84,5.09 -1.47,10.15 -1.86,15.21 0.26,0.31 0.53,0.63 0.79,0.94 0.09,0.1 0.18,0.21 0.26,0.31 2.79,-6.64 5.89,-13.04 9.34,-19.2 -2.32,-2.21 -4.62,-4.45 -6.9,-6.71zm22.94 25.18c-0.71,2.37 -1.41,4.74 -2.11,7.11 -1.68,5.69 -3.32,11.38 -4.92,17.08 1.65,1.51 3.32,2.99 5.01,4.45 1.84,4.05 3.72,8.06 5.67,12.06 0.61,-0.5 1.22,-0.99 1.84,-1.47 2.86,-2.23 6.13,-4.63 9.63,-6.71 -3.34,-8.06 -7.28,-15.87 -11.76,-23.36 -1.1,-3.06 -2.23,-6.11 -3.36,-9.16zm-16.68 60.68c-0.13,0.51 -0.25,1.01 -0.37,1.52 0.22,-0.29 0.44,-0.58 0.66,-0.87 -0.1,-0.22 -0.19,-0.43 -0.29,-0.65z"/>
   <path class="fil5" d="M103.2 124c-0.88,0 -1.78,0.35 -2.35,1.14 -1.07,1.48 -2.23,2.88 -3.41,4.24 1.12,6.95 2.46,13.86 3.94,20.73 0.09,-0.34 0.18,-0.68 0.26,-1.02 0.91,-3.65 1.47,-7.4 1.54,-11.13 0.08,-4.03 1.05,-6.88 2.51,-10.76 0.73,-1.96 -0.85,-3.2 -2.49,-3.2zm35.72 8.72c-0.88,0 -1.76,0.2 -2.54,0.64 -7.71,4.36 -10.85,14.91 -14.03,22.67 -3.29,8.03 -6.13,16.25 -8.28,24.65 -0.85,3.33 -1.61,6.67 -2.28,10.04 4.77,15.88 10.48,31.48 17.25,46.6 6.29,14.04 13.26,27.89 22.18,40.36 0.14,-0.18 0.3,-0.36 0.48,-0.54 2.74,-2.74 4.24,-5.57 8.12,-7.01 2.14,-0.79 4.48,-1.11 6.82,-1.11 0.24,0 0.48,0.01 0.72,0.02 -9.54,-22.89 -17.91,-46.31 -25.37,-69.93 -2.93,7.52 -5.5,15.15 -7.63,22.94 -0.18,0.04 -0.36,0.08 -0.53,0.12 -1.27,-0.64 -2.51,-1.34 -3.7,-2.09 0.01,-0.6 0.01,-1.2 0.03,-1.8 0.33,-12.39 1.77,-24.7 4.04,-36.87 -0.29,-0.75 -0.57,-1.5 -0.85,-2.26 -1.17,-3.21 0.4,-5.9 2.76,-7.04 1.16,-5.11 2.51,-10.17 4.04,-15.18 2.02,-6.59 5.34,-13.18 4.05,-20.17 -0.46,-2.52 -2.88,-4.04 -5.28,-4.04zm43.49 3.14c-0.66,0 -1.34,0.19 -2,0.63 -8.72,5.73 -15.03,16.45 -20.35,25.22 -3.82,6.29 -7.24,12.81 -10.37,19.47 6.25,6.91 12.7,13.67 19.34,20.26 1.5,-8.19 3.2,-16.33 5.2,-24.43 0.12,-0.49 0.24,-0.97 0.36,-1.46 -3.07,-8.24 -4.74,-16.85 -4.72,-26 0.01,-3.46 2.57,-5.06 5.31,-5.06 2.86,0 5.93,1.75 6.52,4.96 0.17,0.94 0.38,1.87 0.63,2.79 1.47,-2.82 3.21,-5.47 5.32,-7.85 1.61,-1.83 0.61,-3.93 -1.06,-4.54 -0.28,-2.11 -2.11,-3.99 -4.18,-3.99zm32.68 21.93c-6.91,1.27 -12.58,5.34 -17.23,10.55 1.95,-0.62 3.72,-1.26 5.24,-1.87 0.56,-0.23 1.11,-0.48 1.67,-0.72 3.16,2.83 6.33,5.67 9.26,8.71 1.63,-2.15 3.31,-4.24 5.04,-6.28 0.08,-0.09 0.15,-0.17 0.21,-0.26 -0.32,-0.66 -0.64,-1.33 -0.94,-2 -1.23,-2.71 -2.31,-5.42 -3.25,-8.13zm-18.3 11.78c-0.98,1.18 -1.91,2.4 -2.8,3.66 3,3.86 6.14,7.57 8.99,11.21 0.74,0.95 1.48,1.89 2.22,2.84 0.07,-0.11 0.13,-0.22 0.2,-0.34 -2.9,-5.77 -5.76,-11.56 -8.61,-17.37zm-15.81 29.67c-0.14,0.38 -0.29,0.77 -0.43,1.15 -1.6,2.55 -3.14,5.13 -4.62,7.76 4.55,4.35 9.18,8.6 13.87,12.76 -2.79,-7.27 -5.71,-14.49 -8.82,-21.67zm0.47 48.33c1.03,1.55 2.06,3.11 3.09,4.67 0.13,-0.48 0.27,-0.95 0.4,-1.43 -0.53,-0.47 -1.05,-0.95 -1.57,-1.44 -0.64,-0.6 -1.28,-1.2 -1.92,-1.8zm14.17 19.75c-0.25,0.2 -0.5,0.4 -0.74,0.6 1.21,1.79 2.43,3.56 3.67,5.32 -0.99,-1.97 -1.97,-3.94 -2.93,-5.92zm-37.76 18.67c-0.06,0.01 -0.12,0.03 -0.18,0.05 1.86,2.22 3.8,4.38 5.83,6.48 0.7,0.73 1.62,1.04 2.55,1.04 0.22,0 0.45,-0.02 0.68,-0.06 0.61,1.12 1.22,2.23 1.84,3.33 1,1.8 2.49,2.55 3.98,2.55 0.77,0 1.54,-0.2 2.24,-0.56 -2.95,-2.97 -6.05,-5.73 -9.29,-8.39 -1.38,-1.13 -2.66,-2.4 -4.26,-3.22 -0.89,-0.35 -1.79,-0.68 -2.69,-1.01 -0.29,-0.08 -0.51,-0.15 -0.7,-0.21z"/>
   <path class="fil6" d="M175.18 144.49c-2.74,0 -5.3,1.6 -5.31,5.06 -0.02,9.15 1.65,17.76 4.72,26 1.92,-7.79 3.96,-16.1 7.74,-23.31 -0.25,-0.92 -0.46,-1.85 -0.63,-2.79 -0.59,-3.21 -3.66,-4.96 -6.52,-4.96zm42.26 13c-0.14,0 -0.29,0 -0.44,0.02 -0.65,0.07 -1.28,0.16 -1.91,0.28 0.94,2.71 2.02,5.42 3.25,8.13 0.3,0.68 0.62,1.34 0.94,2 0.88,-1.18 1.04,-2.44 0.73,-3.54 1.67,-2.36 0.88,-6.89 -2.57,-6.89zm-81.34 14.62c-2.35,1.14 -3.92,3.83 -2.75,7.04 0.28,0.76 0.56,1.51 0.85,2.26 0.25,-1.38 0.52,-2.77 0.8,-4.15 0.35,-1.72 0.71,-3.44 1.1,-5.15zm57.89 1.11c-1.48,2.1 -2.83,4.28 -4.06,6.46 -1.87,3.31 -3.55,6.74 -5.11,10.24 1.08,2.07 2.16,4.13 3.24,6.18 2.75,5.2 5.54,10.36 8.49,15.42 1.63,-5.21 3.29,-10.4 5.01,-15.57 0.74,-2.19 1.5,-4.39 2.34,-6.56 0.43,-0.71 0.86,-1.41 1.3,-2.11 -0.74,-0.95 -1.48,-1.89 -2.22,-2.84 -2.85,-3.64 -5.99,-7.35 -8.99,-11.22zm-44.3 7.96c-1.72,3.65 -3.35,7.34 -4.91,11.06 -0.56,1.33 -1.11,2.66 -1.65,3.99 0.75,1.27 1.49,2.53 2.24,3.8 5.76,9.73 12.94,17.54 20.17,26.07 0.4,-5.06 1.02,-10.12 1.86,-15.21 0.51,-3.16 1.06,-6.31 1.63,-9.45 -6.64,-6.59 -13.09,-13.35 -19.34,-20.26zm26.24 26.97c-3.45,6.16 -6.55,12.56 -9.34,19.2 5.38,6.43 10.21,13.26 14.86,20.22 0.64,0.6 1.28,1.2 1.92,1.8 0.52,0.49 1.04,0.97 1.57,1.44 1.6,-5.7 3.24,-11.39 4.92,-17.08 0.7,-2.37 1.4,-4.74 2.1,-7.11 -0.71,-1.9 -1.43,-3.81 -2.16,-5.71 -4.69,-4.16 -9.32,-8.41 -13.87,-12.76zm31.16 50.99c-3.51,2.08 -6.77,4.48 -9.63,6.71 -0.62,0.48 -1.23,0.97 -1.84,1.47 0.96,1.98 1.94,3.95 2.93,5.92 2.29,3.24 4.64,6.43 7.11,9.53 0.86,1.08 1.96,1.54 3.07,1.54 2.89,0 5.88,-3.09 4.98,-6.23 -1.84,-6.43 -4.05,-12.76 -6.62,-18.94zm-40.45 9.89c-2.34,0 -4.68,0.31 -6.82,1.1 -3.88,1.44 -5.38,4.27 -8.12,7.01 -0.18,0.18 -0.34,0.36 -0.48,0.54 2.04,2.87 4.19,5.65 6.46,8.36 0.06,-0.02 0.12,-0.03 0.18,-0.05 0.19,0.06 0.41,0.13 0.7,0.21 0.9,0.33 1.8,0.66 2.69,1.01 1.6,0.82 2.88,2.09 4.26,3.23 3.24,2.65 6.34,5.41 9.29,8.39 2.31,-1.17 3.92,-4.03 2.51,-7.1 -0.58,-1.26 -1.16,-2.52 -1.73,-3.78 -0.22,0.29 -0.44,0.58 -0.66,0.87 0.12,-0.51 0.25,-1.01 0.37,-1.52 -2.73,-6.04 -5.37,-12.14 -7.93,-18.27 -0.24,0 -0.48,0 -0.72,0z"/>
  </g>
 </g>
</svg>
