<svg id="Capa_1" data-name="Capa 1" xmlns="http://www.w3.org/2000/svg" width="350" height="95" viewBox="0 0 350 95">
  <defs>
    <style>
      .cls-1 {
        fill: #fff;
      }

      .cls-2 {
        fill: #140981;
      }
    </style>
  </defs>
  <g>
    <path class="cls-1" d="M14.384,25.036H24.609v7.14h.58A23.461,23.461,0,0,1,29.358,25.8a7.083,7.083,0,0,1,5.186-2.04,6.055,6.055,0,0,1,2.175.34l-1.087,12.92a10.765,10.765,0,0,0-3.046-.595,5.578,5.578,0,0,0-2.938.765,8.148,8.148,0,0,0-2.248,2.04q-.978,1.275-2.791,3.91v25.67H14.384Z"/>
    <path class="cls-1" d="M70.74,64.5q-3.59-5.652-3.59-15.767,0-11.985,5.33-18.4t15.193-6.417q1.231,0,3.7.17V6.828h10.08v62.05H91.516l.217-5.7h-.29a14.367,14.367,0,0,1-4.6,5.186A11.549,11.549,0,0,1,70.74,64.5Zm16.715-7.14a21.556,21.556,0,0,0,3.916-6.672V35.133a15.908,15.908,0,0,0-4.714-.765,7.826,7.826,0,0,0-6.925,3.485q-2.358,3.486-2.357,10.2A20.094,20.094,0,0,0,78.862,56.6q1.487,3.105,4.1,3.1A6.211,6.211,0,0,0,87.455,57.36Z"/>
    <g>
      <path class="cls-1" d="M174.311,25.1h10.006v6.8q4.423-7.99,11.965-7.991a11.531,11.531,0,0,1,7.288,2.337,13.251,13.251,0,0,1,4.388,6.673,19.2,19.2,0,0,1,5.692-6.843,12.439,12.439,0,0,1,7.215-2.167,11.365,11.365,0,0,1,9.392,4.207q3.372,4.209,3.372,11.688v29.07H223.4v-27.2a8.771,8.771,0,0,0-1.414-5.312,4.491,4.491,0,0,0-3.806-1.913,7.32,7.32,0,0,0-5.512,2.89,18.376,18.376,0,0,0-3.771,7.4V68.877H198.676v-27.2a8.667,8.667,0,0,0-1.45-5.27,4.56,4.56,0,0,0-3.844-1.955,7.1,7.1,0,0,0-5.04,2.337,16.755,16.755,0,0,0-3.807,6.588v25.5H174.311Z"/>
      <path class="cls-1" d="M266.752,86.217l1.958-10.54a37.355,37.355,0,0,0,11.6,2.38,10.07,10.07,0,0,0,5.693-1.359,7.4,7.4,0,0,0,2.828-4.25,33.183,33.183,0,0,0,.979-7.906H289.6a14.418,14.418,0,0,1-4.714,4.165,12.2,12.2,0,0,1-5.874,1.446,11.218,11.218,0,0,1-9.971-5.654q-3.59-5.65-3.59-15.681,0-12.156,5.33-18.531t15.265-6.375a55.817,55.817,0,0,1,13.633,2.04q.146,17.511.145,26.35,0,7.907-.072,11.9-.147,12.069-5.185,18.02t-15.192,5.95A41.491,41.491,0,0,1,266.752,86.217Zm19.253-28.475a17.131,17.131,0,0,0,3.662-5.525L289.6,35.132a15.22,15.22,0,0,0-4.642-.765,7.828,7.828,0,0,0-6.925,3.485q-2.358,3.486-2.357,10.115A19.516,19.516,0,0,0,277.23,56.6q1.56,3.1,4.46,3.1A6.253,6.253,0,0,0,286.005,57.742Z"/>
      <path class="cls-1" d="M305.884,64.372q-3.41-5.778-3.408-15.725,0-12.068,5.221-18.4t15.011-6.332a49.5,49.5,0,0,1,12.908,2.04V68.877H325.9l.218-6.97h-.29a16.54,16.54,0,0,1-4.6,6.121,9.711,9.711,0,0,1-6.128,2.125Q309.292,70.153,305.884,64.372Zm15.808-7.48a31.46,31.46,0,0,0,4.062-7.48V35.132a14.758,14.758,0,0,0-4.642-.765,7.273,7.273,0,0,0-6.562,3.485q-2.214,3.486-2.212,10.285a22.294,22.294,0,0,0,1.306,8.458q1.305,3.1,3.626,3.1Q319.516,59.7,321.692,56.892Z"/>
    </g>
    <g>
      <path class="cls-2" d="M136.969,69.44a28.686,28.686,0,0,1-19.459-7A76.314,76.314,0,0,1,105.4,67.774l-2.846-9.065a63.608,63.608,0,0,0,9.1-3.931,32.762,32.762,0,0,1-3.761-16.83c.309-5.474,2.255-9.832,5.483-12.271,5.541-4.189,14.934-3.067,19.707,2.353,3.086,3.506,4.026,8.372,2.792,14.463-1.175,5.791-5.21,10.61-9.978,14.433,6.017,3.853,15.039,4.013,23.47.2l3.914,8.656A39.766,39.766,0,0,1,136.969,69.44ZM121.547,32.655a4.29,4.29,0,0,0-2.445.6c-.743.563-1.565,2.4-1.725,5.226a24.075,24.075,0,0,0,2.358,11.22c3.422-2.666,6.152-5.764,6.828-9.095.612-3.023.406-5.142-.612-6.3A6.039,6.039,0,0,0,121.547,32.655Z"/>
      <path class="cls-2" d="M138.406,69.449a39.175,39.175,0,0,1-14.7-2.956l3.575-8.8c8.2,3.329,16.642,2.969,22.366-.777-4.829-3.82-8.912-8.623-10.078-14.371-1.238-6.089-.3-10.957,2.793-14.466,4.768-5.42,14.163-6.541,19.7-2.352,3.227,2.439,5.175,6.8,5.483,12.27a32.752,32.752,0,0,1-3.709,16.733,61.663,61.663,0,0,0,9.365,3.981l-2.845,9.065a78.829,78.829,0,0,1-12.311-5.392C152.96,67.035,145.958,69.449,138.406,69.449ZM153.9,32.7a6.036,6.036,0,0,0-4.4,1.652c-1.021,1.159-1.227,3.278-.613,6.3.649,3.2,3.373,6.29,6.873,9a24.07,24.07,0,0,0,2.312-11.126c-.159-2.829-.982-4.663-1.726-5.225A4.281,4.281,0,0,0,153.9,32.7Z"/>
    </g>
    <path class="cls-1" d="M66.745,70.313a28.679,28.679,0,0,1-19.457-7,76.27,76.27,0,0,1-12.115,5.332l-2.844-9.065a63.752,63.752,0,0,0,9.1-3.929,32.763,32.763,0,0,1-3.761-16.831c.309-5.474,2.255-9.832,5.482-12.272C48.7,22.362,58.088,23.484,62.857,28.9c3.09,3.509,4.03,8.377,2.792,14.468-1.174,5.791-5.209,10.608-9.974,14.43,6.016,3.852,15.038,4.011,23.467.2l3.914,8.656A39.766,39.766,0,0,1,66.745,70.313ZM51.324,33.528a4.29,4.29,0,0,0-2.445.6c-.743.563-1.566,2.4-1.725,5.226a24.07,24.07,0,0,0,2.358,11.222c3.421-2.666,6.151-5.764,6.827-9.1.614-3.023.408-5.142-.611-6.3A6.039,6.039,0,0,0,51.324,33.528Z"/>
    <path class="cls-1" d="M264.815,70.426a28.683,28.683,0,0,1-19.458-7,76.25,76.25,0,0,1-12.113,5.333L230.4,59.7a63.778,63.778,0,0,0,9.1-3.931,32.759,32.759,0,0,1-3.76-16.83c.308-5.474,2.255-9.832,5.483-12.272,5.544-4.188,14.932-3.065,19.706,2.353,3.087,3.507,4.026,8.372,2.792,14.463-1.175,5.792-5.21,10.611-9.978,14.433,6.018,3.852,15.041,4.012,23.47.2l3.914,8.656A39.787,39.787,0,0,1,264.815,70.426ZM249.394,33.64a4.281,4.281,0,0,0-2.444.6c-.744.563-1.566,2.4-1.725,5.227a24.056,24.056,0,0,0,2.356,11.22c3.422-2.666,6.152-5.764,6.828-9.095.612-3.024.406-5.143-.612-6.3A6.039,6.039,0,0,0,249.394,33.64Z"/>
  </g>
</svg>
