<svg id="Capa_1" data-name="Capa 1" xmlns="http://www.w3.org/2000/svg" width="350" height="95" viewBox="0 0 350 95">
  <defs>
    <style>
      .cls-1 {
        fill: #fff;
      }

      .cls-2 {
        fill: #140981;
      }
    </style>
  </defs>
  <g>
    <g>
      <path class="cls-1" d="M7.028,12q2.192-.086,8.182-.086,6.063,0,8.256.086,8.328.344,12.42,4.752t4.092,11.861a19.986,19.986,0,0,1-2.74,10.748,12.769,12.769,0,0,1-7.635,5.78,21.177,21.177,0,0,1,3.141,3.982q1.608,2.527,4.457,7.836,2.994,5.568,6.064,12.075H30.991L22.735,51.054A9.251,9.251,0,0,0,20.361,47.5a5.651,5.651,0,0,0-3.178-.728V69.038H7.028ZM21.712,37.266a7.8,7.8,0,0,0,5.882-2.226,8.254,8.254,0,0,0,2.155-5.994,6.853,6.853,0,0,0-1.9-5.224,7.785,7.785,0,0,0-5.552-1.8H17.183V37.266Z"/>
      <path class="cls-1" d="M76.112,64.627Q72.494,58.933,72.5,48.742q0-12.075,5.37-18.54t15.306-6.466q1.242,0,3.726.171V6.523h10.156V69.038H97.043l.219-5.738H96.97a14.474,14.474,0,0,1-4.639,5.224,11.127,11.127,0,0,1-6.247,1.8A11.242,11.242,0,0,1,76.112,64.627Zm16.84-7.193A21.721,21.721,0,0,0,96.9,50.712V35.04a16.022,16.022,0,0,0-4.749-.77,7.883,7.883,0,0,0-6.977,3.51Q82.8,41.293,82.8,48.057a20.239,20.239,0,0,0,1.5,8.607q1.5,3.126,4.127,3.125A6.261,6.261,0,0,0,92.952,57.434Z"/>
    </g>
    <g>
      <path class="cls-1" d="M180.458,24.934H190.54v6.852q4.455-8.049,12.054-8.05a11.617,11.617,0,0,1,7.343,2.354,13.351,13.351,0,0,1,4.421,6.723,19.324,19.324,0,0,1,5.735-6.894,12.527,12.527,0,0,1,7.269-2.183,11.448,11.448,0,0,1,9.462,4.238q3.4,4.241,3.4,11.775V69.037h-10.3v-27.4a8.847,8.847,0,0,0-1.425-5.352,4.524,4.524,0,0,0-3.835-1.926,7.377,7.377,0,0,0-5.553,2.911,18.5,18.5,0,0,0-3.8,7.451v24.32h-10.3v-27.4a8.727,8.727,0,0,0-1.461-5.309,4.593,4.593,0,0,0-3.873-1.969,7.15,7.15,0,0,0-5.078,2.354,16.869,16.869,0,0,0-3.835,6.637V69.037h-10.3Z"/>
      <path class="cls-1" d="M273.592,86.507l1.973-10.619a37.624,37.624,0,0,0,11.689,2.4,10.14,10.14,0,0,0,5.735-1.37,7.451,7.451,0,0,0,2.85-4.282,33.443,33.443,0,0,0,.986-7.964h-.219a14.532,14.532,0,0,1-4.749,4.2,12.291,12.291,0,0,1-5.918,1.456,11.3,11.3,0,0,1-10.046-5.7q-3.616-5.694-3.616-15.8,0-12.248,5.37-18.67t15.379-6.422a56.187,56.187,0,0,1,13.735,2.055q.145,17.642.146,26.547,0,7.965-.072,11.99-.148,12.159-5.225,18.154t-15.305,6A41.8,41.8,0,0,1,273.592,86.507Zm19.4-28.688a17.27,17.27,0,0,0,3.69-5.567l-.073-17.213a15.354,15.354,0,0,0-4.676-.77,7.884,7.884,0,0,0-6.977,3.511q-2.376,3.511-2.375,10.191a19.659,19.659,0,0,0,1.571,8.692q1.571,3.127,4.494,3.126A6.3,6.3,0,0,0,292.989,57.819Z"/>
      <path class="cls-1" d="M313.017,64.5q-3.433-5.823-3.434-15.844,0-12.158,5.261-18.54t15.124-6.379a49.838,49.838,0,0,1,13,2.055V69.037h-9.79l.219-7.022h-.292a16.655,16.655,0,0,1-4.639,6.166,9.779,9.779,0,0,1-6.174,2.141Q316.451,70.322,313.017,64.5Zm15.927-7.537a31.729,31.729,0,0,0,4.092-7.535V35.039a14.886,14.886,0,0,0-4.676-.77,7.329,7.329,0,0,0-6.612,3.511q-2.229,3.511-2.228,10.362a22.492,22.492,0,0,0,1.315,8.521q1.315,3.127,3.653,3.126Q326.752,59.789,328.944,56.962Z"/>
    </g>
    <g>
      <path class="cls-2" d="M142.837,69.6a28.9,28.9,0,0,1-19.6-7.052,76.879,76.879,0,0,1-12.2,5.374l-2.867-9.133a64.162,64.162,0,0,0,9.17-3.96,33,33,0,0,1-3.789-16.957c.311-5.514,2.272-9.9,5.523-12.363,5.583-4.22,15.047-3.09,19.855,2.371,3.11,3.533,4.057,8.435,2.813,14.571-1.184,5.835-5.249,10.69-10.052,14.541,6.061,3.882,15.151,4.043,23.645.2l3.944,8.721A40.072,40.072,0,0,1,142.837,69.6ZM127.3,32.544a4.319,4.319,0,0,0-2.464.605c-.749.567-1.577,2.414-1.738,5.265a24.244,24.244,0,0,0,2.375,11.305c3.448-2.686,6.2-5.807,6.88-9.163.617-3.047.409-5.182-.617-6.347A6.081,6.081,0,0,0,127.3,32.544Z"/>
      <path class="cls-2" d="M144.284,69.614a39.479,39.479,0,0,1-14.8-2.979l3.6-8.867c8.262,3.354,16.767,2.991,22.534-.784-4.866-3.848-8.979-8.687-10.154-14.478-1.247-6.134-.3-11.039,2.814-14.574,4.8-5.461,14.269-6.59,19.852-2.37,3.251,2.457,5.213,6.847,5.524,12.362a32.988,32.988,0,0,1-3.737,16.858,62.124,62.124,0,0,0,9.436,4.011l-2.867,9.133a79.332,79.332,0,0,1-12.4-5.433C158.948,67.182,151.894,69.613,144.284,69.614Zm15.61-37.022a6.082,6.082,0,0,0-4.436,1.665c-1.028,1.167-1.236,3.3-.617,6.345.654,3.226,3.4,6.337,6.925,9.069A24.259,24.259,0,0,0,164.1,38.462c-.161-2.85-.989-4.7-1.739-5.264A4.3,4.3,0,0,0,159.894,32.592Z"/>
    </g>
    <path class="cls-1" d="M72.087,70.484a28.9,28.9,0,0,1-19.6-7.05,76.815,76.815,0,0,1-12.206,5.371l-2.865-9.132a64.367,64.367,0,0,0,9.168-3.959,33.013,33.013,0,0,1-3.788-16.957c.31-5.515,2.271-9.906,5.523-12.364C53.9,22.174,63.365,23.3,68.17,28.764,71.283,32.3,72.229,37.2,70.983,43.34c-1.184,5.834-5.248,10.688-10.05,14.538,6.062,3.881,15.151,4.041,23.643.2L88.519,66.8A40.064,40.064,0,0,1,72.087,70.484ZM56.55,33.423a4.317,4.317,0,0,0-2.463.606c-.749.567-1.578,2.414-1.738,5.265A24.248,24.248,0,0,0,54.724,50.6c3.447-2.686,6.2-5.807,6.878-9.164.619-3.046.412-5.181-.616-6.347A6.085,6.085,0,0,0,56.55,33.423Z"/>
    <path class="cls-1" d="M271.641,70.6a28.891,28.891,0,0,1-19.6-7.052,76.815,76.815,0,0,1-12.2,5.373l-2.867-9.132a64.332,64.332,0,0,0,9.169-3.96,33,33,0,0,1-3.788-16.956c.31-5.515,2.272-9.906,5.524-12.364,5.585-4.22,15.044-3.088,19.853,2.37,3.11,3.533,4.057,8.436,2.813,14.572-1.183,5.835-5.249,10.69-10.052,14.541,6.063,3.881,15.154,4.042,23.646.2l3.943,8.721A40.072,40.072,0,0,1,271.641,70.6ZM256.1,33.537a4.314,4.314,0,0,0-2.462.605c-.75.567-1.578,2.415-1.738,5.266a24.241,24.241,0,0,0,2.374,11.3c3.447-2.686,6.2-5.808,6.879-9.164.617-3.046.409-5.181-.617-6.347A6.084,6.084,0,0,0,256.1,33.537Z"/>
  </g>
</svg>
