<?xml version="1.0" encoding="utf-8"?>
<!-- Generator: Adobe Illustrator 26.0.3, SVG Export Plug-In . SVG Version: 6.00 Build 0)  -->
<svg version="1.1" id="Capa_1" xmlns="http://www.w3.org/2000/svg" xmlns:xlink="http://www.w3.org/1999/xlink" x="0px" y="0px"
	 viewBox="0 0 162 155" style="enable-background:new 0 0 162 155;" xml:space="preserve">
<style type="text/css">
	.st0{fill:#FFFFFF;}
	.st1{fill:#08090A;}
</style>
<g>
	<g>
		<path class="st0" d="M32.2,103.6c9.4,10.3,18,21.3,25.7,32.9c4.1,6.1,8.4,12.8,15.2,15.5c1.5,0.6,3.1,1,4.7,0.7
			c2.3-0.4,4.3-2.2,5.2-4.4c1-2.2,1.1-4.6,0.9-7c-0.1-1.8-0.5-3.7-1.4-5.3c-0.8-1.5-2-2.7-3.3-3.9c-7.2-6.5-58.6-60.1-25.2-16.8
			c5.9,7.7,5.8-0.5,0.3-8.6c1.4-1,2.8-1.9,3.9-3.2c1.1-1.2,2-2.8,2.1-4.5c0.1-2.6-1.6-4.8-3-7c18.2-6.5,37.1-10.7,56.2-13
			c-4.2-8.2-7.6-16.7-10.9-25.2C98,42.1,93.5,30.6,88.5,19.6C76.5,31.7,61.8,40.9,47.3,50c-10,6.2-20,12.5-30.6,17.4
			C11,70,4.6,72.8,2.1,78.5C0.5,82.2,0.7,86.4,2,90.1c1.3,3.8,3.5,7.1,5.7,10.4c1.8,2.7,4,5.6,7.4,6.4
			C21,107.2,27.1,105.9,32.2,103.6z"/>
	</g>
	<g>
		<path class="st0" d="M110.6,29.1c2.9,9.6,6.7,19,11.4,27.9c2.9-0.5,5.1-2.9,6.3-5.6s1.3-5.7,1.3-8.6c0-1.2,0-2.4-0.3-3.6
			c-0.3-1-0.9-1.9-1.5-2.8c-1.4-2.2-3-4.3-5.2-5.9C119.1,28.2,114.3,27.7,110.6,29.1z"/>
	</g>
	<g>
		<path class="st0" d="M113.1,79.9c-8.1-20.5-16.3-41-24.4-61.8c4.5-4.2,8.1-9.5,10.3-15.3c0,0,32.9,78.9,32.9,78.6
			C125.9,79.3,119.4,78.6,113.1,79.9z"/>
	</g>
	<g>
		<path class="st1" d="M46.4,96.8c-0.4,0-0.7-0.2-0.9-0.6c-5.5-12-10.4-24.5-14.3-37.1c-0.1-0.4,0-0.9,0.4-1.1
			c4-2.5,8.2-5.1,12.2-7.5C66.9,36.4,90.9,21.8,98,1.4c0.1-0.4,0.5-0.6,0.9-0.6c0.4,0,0.8,0.2,0.9,0.6l33.3,79.8
			c0.2,0.5,0,1.1-0.5,1.3c-0.2,0.1-0.4,0.1-0.6,0c-0.3,0.2-0.6,0.2-0.9,0.1c-22.9-9-83.8,13.9-84.5,14.1
			C46.6,96.8,46.5,96.8,46.4,96.8z M33.2,59.3c3.8,12,8.4,23.9,13.7,35.3c7.7-2.8,60.8-21.9,83.9-14.2L99,4.4
			c-8.2,19.8-31.6,34-54.2,47.9C40.9,54.5,37,56.9,33.2,59.3z"/>
	</g>
	<g>
		<path class="st1" d="M112.7,79.2c-0.4,0-0.7-0.2-0.9-0.6L88.3,20.2c-0.2-0.5,0-1.1,0.5-1.3c0.5-0.2,1.1,0,1.3,0.5l23.5,58.4
			c0.2,0.5,0,1.1-0.5,1.3C112.9,79.2,112.8,79.2,112.7,79.2z"/>
	</g>
	<g>
		<path class="st1" d="M122.8,58.3c-0.3,0-0.6-0.2-0.8-0.4c-0.3-0.4-0.2-1,0.3-1.3c3.2-2.1,5.6-5.6,6.3-9.4c0.8-3.8-0.1-8-2.2-11.2
			c-1-1.5-2.4-2.9-4-4.1c-2.8-1.9-7-3.4-10.6-1.5c-0.5,0.2-1.1,0.1-1.3-0.4c-0.2-0.5-0.1-1.1,0.4-1.3c4.3-2.2,9.3-0.6,12.6,1.7
			c1.8,1.3,3.3,2.8,4.5,4.6c2.4,3.6,3.4,8.3,2.5,12.6c-0.9,4.3-3.5,8.3-7.2,10.7C123.2,58.2,123,58.3,122.8,58.3z"/>
	</g>
	<g>
		<path class="st1" d="M18.2,108.3c-1.6,0-3.2-0.3-4.7-1c-3.8-1.7-6.1-5.5-8.3-9.5c-1.8-3.2-3.8-6.9-4.6-11c-0.9-4.6-0.1-8.9,2.2-12
			c1.9-2.4,4.6-3.9,6.8-5.1c7.1-3.8,14.2-7.6,22.6-11.4c0.5-0.2,1.1,0,1.3,0.5c0.2,0.5,0,1.1-0.5,1.3c-8.3,3.9-15.4,7.6-22.5,11.4
			c-2.1,1.1-4.6,2.5-6.2,4.6c-2,2.6-2.7,6.4-1.8,10.4c0.8,3.8,2.7,7.3,4.4,10.4c2,3.7,4.1,7.2,7.4,8.7c4.4,2,9.6,0,14.5-2.3
			c3.1-1.4,5.9-2.8,8.7-4.1c2.7-1.3,5.6-2.7,8.7-4.2c0.5-0.2,1.1,0,1.3,0.5c0.2,0.5,0,1.1-0.5,1.3c-3.1,1.4-5.9,2.8-8.7,4.1
			c-2.7,1.3-5.6,2.7-8.7,4.2C26,106.7,22.1,108.3,18.2,108.3z"/>
	</g>
	<g>
		<path class="st1" d="M76,154.2c-5,0-9.4-4-11.2-6c-3.5-3.8-6.3-8.2-8.9-12.5c-0.6-1-1.2-2-1.8-2.9c-6.5-10.3-14.1-19.9-22.6-28.5
			c-0.4-0.4-0.4-1,0-1.4c0.4-0.4,1-0.4,1.4,0c8.6,8.7,16.3,18.4,22.9,28.8c0.6,1,1.2,2,1.8,2.9c2.6,4.2,5.3,8.6,8.7,12.2
			c1.9,2.1,6.9,6.7,12.1,5.1c4.6-1.5,6.6-7.7,5.3-12.3c-1.2-4.1-4-6.3-7.9-9.3c-0.7-0.6-1.5-1.2-2.3-1.8l-0.2-0.2
			c-5.9-4.8-12.1-11.1-18.3-18.7c-1.6-2-3.1-5.1-4.8-8.4c-0.9-1.8-1.8-3.7-2.7-5.3c-0.3-0.5-0.1-1.1,0.4-1.3
			c0.5-0.3,1.1-0.1,1.3,0.4c0.9,1.7,1.9,3.6,2.8,5.4c1.6,3.2,3.1,6.2,4.5,8.1c6.1,7.6,12.2,13.8,18,18.5l0.2,0.2
			c0.8,0.6,1.5,1.2,2.3,1.8c4,3.1,7.2,5.6,8.5,10.3c1.6,5.4-0.7,12.8-6.5,14.7C77.9,154.1,76.9,154.2,76,154.2z"/>
	</g>
	<g>
		<path class="st1" d="M55.1,107.6c-0.3,0-0.5-0.1-0.7-0.3c-0.4-0.4-0.4-1,0-1.4l3.4-3.3c0.4-0.4,0.9-0.9,1.2-1.3
			c0.7-1.1,0.7-2.6,0.2-4.1c-0.5-1.5-1.6-2.8-2.5-4c-0.3-0.4-0.3-1,0.2-1.4c0.4-0.3,1-0.3,1.4,0.2c1,1.3,2.2,2.8,2.8,4.5
			c0.8,2.1,0.6,4.2-0.3,5.8c-0.4,0.7-1,1.2-1.5,1.7l-3.4,3.3C55.5,107.5,55.3,107.6,55.1,107.6z"/>
	</g>
	<g>
		<path class="st1" d="M10.3,81.9c-0.3,0-0.7-0.2-0.9-0.5c-0.2-0.5-0.1-1.1,0.4-1.3c6.2-3.2,12.6-6.2,19.1-8.8
			c0.5-0.2,1.1,0,1.3,0.5c0.2,0.5,0,1.1-0.5,1.3c-6.4,2.6-12.8,5.5-18.9,8.7C10.6,81.8,10.4,81.9,10.3,81.9z"/>
	</g>
	<g>
		<path class="st1" d="M14,89.7c-0.4,0-0.7-0.2-0.9-0.6c-0.2-0.5,0-1.1,0.5-1.3c6.4-2.8,12.9-5.5,19.3-8c0.5-0.2,1.1,0,1.2,0.5
			c0.2,0.5-0.1,1.1-0.5,1.2c-6.5,2.5-12.9,5.2-19.3,8C14.2,89.7,14.1,89.7,14,89.7z"/>
	</g>
	<g>
		<path class="st1" d="M17.6,98.3c-0.4,0-0.7-0.2-0.9-0.5c-0.2-0.5,0-1.1,0.4-1.3c6.3-3.1,12.8-5.9,19.4-8.3
			c0.5-0.2,1.1,0.1,1.2,0.6c0.2,0.5-0.1,1.1-0.6,1.2c-6.5,2.4-13,5.1-19.2,8.2C17.9,98.2,17.7,98.3,17.6,98.3z"/>
	</g>
	<g>
		<path class="st1" d="M129.1,26.3c-0.3,0-0.5-0.1-0.7-0.3c-0.4-0.4-0.3-1,0-1.4c5.8-5.5,9.9-13,11.3-21c0.1-0.5,0.6-0.9,1.1-0.8
			c0.5,0.1,0.9,0.6,0.8,1.1c-1.5,8.4-5.7,16.3-11.8,22.1C129.6,26.2,129.4,26.3,129.1,26.3z"/>
	</g>
	<g>
		<path class="st1" d="M135.1,34.3c-0.3,0-0.6-0.2-0.8-0.4c-0.3-0.4-0.2-1,0.3-1.3c4.6-3,9.6-5.6,14.7-7.6c0.5-0.2,1.1,0.1,1.2,0.5
			c0.2,0.5-0.1,1.1-0.5,1.2c-5,1.9-9.8,4.4-14.4,7.4C135.5,34.2,135.3,34.3,135.1,34.3z"/>
	</g>
	<g>
		<path class="st1" d="M160.8,47.9c-0.1,0-0.3,0-0.4-0.1c-6.8-3.3-14.3-4.9-21.9-4.5c-0.5,0-1-0.4-1-0.9c0-0.5,0.4-1,0.9-1
			c7.8-0.4,15.7,1.2,22.8,4.6c0.5,0.2,0.7,0.8,0.4,1.3C161.5,47.7,161.2,47.9,160.8,47.9z"/>
	</g>
	<g>
		<path class="st1" d="M103.1,75.3c-0.1,0-0.2-0.1-0.3-0.2l-6.9-13.1c-0.1-0.2,0-0.4,0.1-0.4c0.2-0.1,0.4,0,0.4,0.1l6.9,13.1
			c0.1,0.2,0,0.4-0.1,0.4C103.2,75.3,103.2,75.3,103.1,75.3z"/>
	</g>
	<g>
		<path class="st1" d="M97.1,77c-0.1,0-0.2-0.1-0.3-0.2l-3.5-6.5c-0.1-0.2,0-0.4,0.1-0.4c0.2-0.1,0.4,0,0.4,0.1l3.5,6.5
			c0.1,0.2,0,0.4-0.1,0.4C97.2,77,97.2,77,97.1,77z"/>
	</g>
	<g>
		<path class="st1" d="M90.4,79.5c-0.1,0-0.2-0.1-0.3-0.2l-2.7-4.9c-0.1-0.2,0-0.4,0.1-0.4c0.2-0.1,0.4,0,0.4,0.1l2.7,4.9
			c0.1,0.2,0,0.4-0.1,0.4C90.5,79.4,90.5,79.5,90.4,79.5z"/>
	</g>
	<g>
		<path class="st1" d="M83,81c-0.1,0-0.2-0.1-0.3-0.2L80.8,77c-0.1-0.2,0-0.4,0.1-0.4c0.2-0.1,0.4,0,0.4,0.1l1.9,3.8
			c0.1,0.2,0,0.4-0.1,0.4C83.1,81,83.1,81,83,81z"/>
	</g>
</g>
</svg>
